<svg xmlns="http://www.w3.org/2000/svg" width="32.563" height="24" viewBox="0 0 32.563 24">
  <path id="np_book_3886897_000000" d="M2.9,13.628c3.278-.862,10.112-.792,12.647,2.113l.005,17.889c-2.367-2.744-9.42-3.1-12.65-1.5Zm-.766,2.649.062,17.3c5.762-1.45,10.655-.9,13.052,1.244A29.012,29.012,0,0,0,.071,37.146L0,17.142a5.274,5.274,0,0,0,2.134-.866Zm28.295,0-.062,17.3c-5.762-1.45-10.655-.9-13.052,1.244a29.012,29.012,0,0,1,15.177,2.329l.071-20a5.274,5.274,0,0,1-2.134-.866Zm-.766-2.649c-3.278-.862-10.112-.792-12.647,2.113l-.005,17.889c2.367-2.744,9.42-3.1,12.65-1.5Z" transform="translate(0 -13.146)"/>
</svg>
